{
  "type": "service_account",
  "project_id": "speed-lunch-2241a",
  "private_key_id": "7fee9a6b9e98e1b5d27f7f17c1cacd5f5858a888",
  "private_key": "-----BEGIN PRIVATE KEY-----\nMIIEvQIBADANBgkqhkiG9w0BAQEFAASCBKcwggSjAgEAAoIBAQDPYlV0w0nHEjkC\nl+RFcCDGuinZdTOYHxyCJtUEe+JHouoxDKjh4XieyfA301tDvXfXTSBuxl6CjPof\n1c4DsOOv4JSq3UItgyuezBhHyD4ajFN3i726Cmkh6qHJOtgFj18h5rFXA+TGrris\nfdnrGbS1gdSc6QeVDqJhYvijuyp2iRwzhHmtkvLUD7yuU9/ih/L5HAFgeSxBRFd3\nf+LByCMktliuzKJlaRXN/pdDIBqH35b5JR4Q9ddgW6Crw5QwboL2v9OkWPtwc4e6\n7QfBOZDVseGrH3e9VGM7qHoUwrg5OfnVlmbTkYhFJqDlpw7BeUNRomXuEJIKrrUA\nS5tS+H6LAgMBAAECggEABl6PSwRFIPuYIP0YR40E51rytm6T6ev+sf1OVT0W0JDE\n35fIx2iSOKecHKLTA+wZoP+0liJlPF48amY51cGE5LMhmHPY41FK3C2Ji17aOseC\nOBg5zgZ21HytK7iGck6aeI3qIXGJq75/BoaLqbMC6quKTlLBPFyUM9Mt2XLXVYec\nrGq0FpWCgOXcwSkHBzG88Ha1Pta8G9wQdHeAnqrz+fT11xQw+66YgAGv+3h/ZiXl\nJ5w4WYFZxOIUqnpq3T7gOBX2e3dy89CRS8VVEq2w242H3nuf2JWc4BvMSNHGqEuR\nmw4Z07cBTLfJD4gYcIpCE5i55m4oZTx/zZmWEVkqpQKBgQDz8FazORroAgpFKPMY\n+HyKtrlGfHh7izzxAJoHcbpGZrzYVhtwLqE3CNn4D71mbONv6nOCQF1c5alHDMwK\nPmIJO+dPTUC3/QyknnYgLxB+Z2CnYYoCDzoAIwRP83/MfE9wVeQbfGPBQ3g8wi7j\nhcih5ie7id77//3g/pVUJ0SnzwKBgQDZo02XfM7l0lXOeDMoWe67Q3gc29Ky4eKl\ngFYLBwUnLWVQxlIY214trLiaDQVd+76/cbjtRMYaQZFcXn7MOt+VhkDXa+XosVaC\nPSJpJhWLb8XdgUqMhoMAPwdcRJGGAMLeSySrN97bn9hDSOe76Kf3mvx6dy3bONnG\nvumDBOGwhQKBgQDpXi8DjIkSFgmPOmq+o9I5vi8noKJ+xqkJguLYZlOnUFgvusjL\nHMD8bopgR2aRm3BGPAw/OqZW3huArlxxHFcbsGRMuIJGwl6bCkHF7mCgHPQZjTXD\nXJ/HS7ivaCsGDJLOzEzKgsjINmzL65WB8xYK1K2EO5TIjpFp8wQXGu4SfwKBgDBE\ntqW9aYmxH5S+NeJiJ79ilFYaLt27mW/JScwCT5NDzy+d/IFEzdtlbj/EWYdhmQmO\nqEv/L8yM9Dc/QfH7sLDR6LmeVYxJIH2cH3CgoLCfJowc67LE9nLsh65gCsJkktOI\naOaMaqHdDrLFjZewXuhceFiU7BetwScCGnoTcBadAoGAV9Fmpf2Cesl2TQlt64Gt\nWim7fIsqLTLYzLl87H12YdmFXgbrXt9sZW3TcJOd7qJP6C18TaoH44Jomm6VWJuR\noP/K+dXOZ1UaBPnfXtrgkZjQmvIKqU4OqG7ys7KOAxheaH3iBGTr7VwfYU6OcBfl\nGioTMcIr6TXxoI8lEN99h5I=\n-----END PRIVATE KEY-----\n",
  "client_email": "firebase-adminsdk-9bzg2@speed-lunch-2241a.iam.gserviceaccount.com",
  "client_id": "108768950429467910941",
  "auth_uri": "https://accounts.google.com/o/oauth2/auth",
  "token_uri": "https://oauth2.googleapis.com/token",
  "auth_provider_x509_cert_url": "https://www.googleapis.com/oauth2/v1/certs",
  "client_x509_cert_url": "https://www.googleapis.com/robot/v1/metadata/x509/firebase-adminsdk-9bzg2%40speed-lunch-2241a.iam.gserviceaccount.com"
}
